{
  "bot-sideURL": "http://97b531a6.ngrok.io/",
  "hmac_key": "KYRjgSHKmi5J21MsoDXabCsgGL80WdrxZcaFapCDvKQTvyw1CNxRqqud90G0dpl2",
  "proof_of_work": {
    "validity_period": 60
  },
  "responderURL": "https://rs.dc.ethanwhite.xyz/",
  "work_unit_manager": {
    "buffer_len": 24,
    "critical_buffer_len": 10
  },
  "workunitURL": "https://wm.dc.ethanwhite.xyz/"
}
